{
  "project_info": {
    "project_number": "514974950469",
    "firebase_url": "https://emprendedor-4a77c-default-rtdb.firebaseio.com",
    "project_id": "emprendedor-4a77c",
    "storage_bucket": "emprendedor-4a77c.appspot.com"
  },
  "client": [
    {
      "client_info": {
        "mobilesdk_app_id": "1:514974950469:android:54e0577d80457a35de2f2c",
        "android_client_info": {
          "package_name": "com.example.emprendedor"
        }
      },
      "oauth_client": [
        {
          "client_id": "514974950469-cgienuk1t054fbck48ouahl12ced9qi8.apps.googleusercontent.com",
          "client_type": 1,
          "android_info": {
            "package_name": "com.example.emprendedor",
            "certificate_hash": "2fd9f197b75dff58cfc391e3e72e138e630712bf"
          }
        },
        {
          "client_id": "514974950469-oqmlitvhsog45ju1f30ndmb9du0reffe.apps.googleusercontent.com",
          "client_type": 3
        }
      ],
      "api_key": [
        {
          "current_key": "AIzaSyDAxwn1Lp8tyjaIwedQE3KMz5OI-2-ohD0"
        }
      ],
      "services": {
        "appinvite_service": {
          "other_platform_oauth_client": [
            {
              "client_id": "514974950469-oqmlitvhsog45ju1f30ndmb9du0reffe.apps.googleusercontent.com",
              "client_type": 3
            }
          ]
        }
      }
    }
  ],
  "configuration_version": "1"
}